@startuml
!define RECTANGLE rectangle

actor User

RECTANGLE "Node.js Application" {
    [App] --> [Postgres Database]
    [App] --> [Node.js Runtime]
    [App] --> [Dependencies]
}

RECTANGLE "Postgres Database" {
    [Postgres Instance]
}

User --> [App] : Uses

@enduml